<svg width="13px" height="20px" viewBox="0 0 13 20" version="1.1" xmlns="http://www.w3.org/2000/svg" xmlns:xlink="http://www.w3.org/1999/xlink">
  <polygon id="path-1" points="17.51 3.87 15.73 2.1 5.84 12 15.74 21.9 17.51 20.13 9.38 12" transform="translate(-5, -2)" fill="#ffffff"></polygon>
</svg>
