[
  { "id": 1, "modelNo": "Temperature Monitor 1", "serialNo": "A1234567001", "zone": null, "state": false, "values": { "temp": null }, "modifiedOn": 123123123 , "zoneId": 11},
  { "id": 3, "modelNo": "Temperature Monitor 3", "serialNo": "A1234567003", "zone": null, "state": false, "values": { "temp": null }, "modifiedOn": 123123123 , "zoneId": 12},
  { "id": 4, "modelNo": "Temperature Monitor 4", "serialNo": "A1234567004", "zone": null, "state": false, "values": { "temp": null }, "modifiedOn": 123123123 , "zoneId": 12}
]
